<svg xmlns="http://www.w3.org/2000/svg" width="144" height="144" viewBox="0 0 72 72">
  <circle cx="24" cy="66" r="2" fill="#F3F4F5"/>
  <circle cx="32" cy="66" r="2" fill="#F3F4F5"/>
  <circle cx="40" cy="66" r="2" fill="#F3F4F5"/>
  <circle cx="48" cy="66" r="2" fill="#F3F4F5"/>
</svg>
